  Nodes removed:  ['145', '68', '442', '456', '95', '265', '336', '304', '456', '369', '265', '456', '304', '95', '0', '68', '304', '304', '442', '304', '145', '456', '456']
  Edges removed:  [('411', '90'), ('446', '238'), ('41', '96'), ('408', '292'), ('287', '139'), ('129', '379'), ('116', '417'), ('251', '388'), ('90', '179'), ('150', '463'), ('71', '128'), ('410', '252'), ('2', '14'), ('18', '459'), ('100', '78'), ('194', '391'), ('205', '449'), ('46', '394'), ('150', '463'), ('149', '291'), ('40', '376')]
MinVal achieved:  101479.0
