  Nodes removed:  ['52', '39', '32', '14', '12']
  Edges removed:  [('53', '62'), ('35', '55'), ('39', '75'), ('29', '31'), ('10', '15'), ('25', '38'), ('95', '96'), ('43', '65'), ('71', '84'), ('56', '94'), ('14', '36'), ('73', '78'), ('8', '95'), ('16', '74'), ('14', '17'), ('3', '4'), ('21', '22'), ('89', '101')]
MinVal achieved:  5995.0
