  Nodes removed:  ['57', '177', '72', '4', '58', '3', '95', '149', '58', '177', '177']
  Edges removed:  [('98', '90'), ('107', '140'), ('85', '142'), ('232', '190'), ('52', '16'), ('14', '167'), ('96', '151'), ('77', '48'), ('95', '198'), ('30', '139')]
MinVal achieved:  25201.0
