  Nodes removed:  ['150', '36', '16', '5', '4', '37', '46', '215', '213', '215', '3', '0']
  Edges removed:  [('2', '239'), ('2', '250'), ('2', '81'), ('6', '222'), ('1', '56'), ('0', '21'), ('1', '127'), ('2', '237'), ('6', '40'), ('7', '185'), ('0', '210'), ('8', '9'), ('0', '72'), ('2', '192'), ('1', '245')]
MinVal achieved:  21321.0
