  Nodes removed:  ['449', '449', '242', '478', '96', '59', '1', '0', '59', '1', '292', '0', '0', '478', '59', '242', '292', '449', '96', '250', '478', '0', '96', '478', '250']
  Edges removed:  [('263', '469'), ('48', '254'), ('178', '186'), ('25', '28'), ('47', '108'), ('82', '118'), ('67', '11'), ('0', '111'), ('194', '407'), ('8', '9'), ('117', '281'), ('48', '114'), ('9', '74'), ('196', '254'), ('349', '318'), ('14', '32'), ('57', '210'), ('18', '75'), ('45', '198'), ('0', '8'), ('338', '468'), ('0', '193'), ('3', '201'), ('80', '401')]
MinVal achieved:  103915.0
