  Nodes removed:  ['22', '15', '4', '3', '2']
  Edges removed:  [('28', '79'), ('23', '106'), ('13', '82'), ('38', '47'), ('1', '13'), ('6', '66'), ('82', '109'), ('20', '90'), ('4', '58'), ('73', '78'), ('33', '52'), ('10', '103'), ('59', '61'), ('39', '57'), ('32', '66'), ('37', '52'), ('28', '70'), ('41', '113')]
MinVal achieved:  5995.0
