  Nodes removed:  ['194', '153', '56', '168', '128', '62', '168', '56', '28', '168', '0', '194']
  Edges removed:  [('2', '35'), ('30', '125'), ('6', '7'), ('248', '152'), ('190', '16'), ('0', '102'), ('81', '97'), ('33', '179'), ('0', '220'), ('81', '6'), ('155', '219'), ('87', '188'), ('124', '175'), ('1', '112'), ('62', '55')]
MinVal achieved:  26832.0
