  Nodes removed:  ['427', '392', '440', '440', '184', '97', '97', '48', '392', '2', '440', '219', '2', '1', '332', '488', '93', '446', '0', '375', '160', '96', '375', '96', '94']
  Edges removed:  [('301', '427'), ('301', '427'), ('11', '440'), ('11', '440'), ('301', '427'), ('301', '427'), ('11', '440'), ('11', '440'), ('301', '427'), ('301', '427'), ('301', '427'), ('301', '427'), ('301', '427'), ('301', '427')]
MinVal achieved:  5685.0
