  Nodes removed:  ['69', '210', '79', '181', '210', '58', '24', '2', '58', '24', '149']
  Edges removed:  [('72', '176'), ('233', '135'), ('84', '102'), ('135', '138'), ('169', '144'), ('1', '42'), ('84', '102'), ('222', '80'), ('77', '48'), ('191', '143')]
MinVal achieved:  25201.0
