  Nodes removed:  ['499', '471', '62', '40', '12', '11', '10', '10', '499', '12', '7', '12', '3', '105', '410', '7', '509', '40', '208', '10', '59', '0', '91', '313', '187']
  Edges removed:  [('3', '84'), ('6', '356'), ('7', '105'), ('2', '91'), ('9', '376'), ('3', '298'), ('1', '173'), ('7', '410'), ('7', '508'), ('4', '505'), ('1', '182'), ('3', '60'), ('5', '226'), ('3', '496'), ('8', '225'), ('4', '380'), ('1', '25'), ('7', '268'), ('9', '94'), ('1', '457'), ('2', '81'), ('3', '511'), ('6', '399'), ('2', '333'), ('1', '459'), ('9', '68'), ('4', '211'), ('5', '465'), ('2', '24'), ('6', '72'), ('7', '265'), ('7', '436'), ('3', '19')]
MinVal achieved:  111156.0
