  Nodes removed:  ['347', '126', '347', '103', '19', '4', '19', '0']
  Edges removed:  [('146', '227'), ('182', '185'), ('137', '155'), ('1', '19'), ('25', '26'), ('0', '59'), ('19', '47'), ('176', '423')]
MinVal achieved:  115495.0
