  Nodes removed:  ['407', '201', '248', '12', '201', '1', '194', '12', '1', '194', '93', '0']
  Edges removed:  [('187', '407'), ('187', '407'), ('5', '201'), ('187', '407'), ('1', '10'), ('1', '214'), ('1', '194'), ('1', '160')]
MinVal achieved:  6999.0
