  Nodes removed:  ['187', '117', '15', '14', '4', '14', '0', '194', '187', '42', '145', '39']
  Edges removed:  [('4', '111'), ('2', '122'), ('2', '13'), ('6', '40'), ('6', '35'), ('3', '22'), ('3', '133'), ('0', '226'), ('6', '188'), ('9', '128'), ('8', '19'), ('1', '248'), ('1', '171'), ('7', '208'), ('9', '200')]
MinVal achieved:  25425.0
