  Nodes removed:  ['364', '424', '126', '193', '1', '424', '0', '292', '126', '1', '1']
  Edges removed:  [('109', '254'), ('23', '140'), ('33', '54'), ('1', '300'), ('111', '148')]
MinVal achieved:  115495.0
