  Nodes removed:  ['387', '424', '67', '3', '111', '111', '0', '111']
  Edges removed:  [('27', '65'), ('239', '258'), ('20', '196'), ('9', '10'), ('119', '207'), ('299', '369'), ('57', '124'), ('175', '332')]
MinVal achieved:  118351.0
