  Nodes removed:  ['208', '143', '62', '1', '0', '208', '62', '62', '1', '143', '143', '215']
  Edges removed:  [('15', '17'), ('90', '172'), ('94', '163'), ('0', '118'), ('43', '211'), ('31', '108'), ('129', '51'), ('31', '62'), ('1', '143'), ('43', '211'), ('93', '117'), ('6', '9'), ('127', '7'), ('14', '85'), ('33', '46')]
MinVal achieved:  26835.0
