  Nodes removed:  ['400', '456', '355', '441', '103', '441', '4', '0', '292']
  Edges removed:  [('367', '429'), ('113', '317'), ('1', '213'), ('101', '355'), ('144', '119'), ('23', '186'), ('18', '355')]
MinVal achieved:  120295.0
