  Nodes removed:  ['161', '38', '13', '8', '134', '50', '3', '38', '2', '8', '149']
  Edges removed:  [('157', '179'), ('124', '139'), ('213', '178'), ('12', '13'), ('175', '165'), ('133', '37'), ('52', '125'), ('79', '96'), ('170', '202'), ('23', '136')]
MinVal achieved:  24977.0
