  Nodes removed:  ['42', '30', '29', '17', '6']
  Edges removed:  [('72', '78'), ('46', '68'), ('26', '57'), ('25', '43'), ('47', '108'), ('84', '85'), ('4', '5'), ('81', '108'), ('100', '112'), ('35', '54'), ('18', '105'), ('95', '98'), ('34', '41'), ('83', '114'), ('13', '83'), ('27', '32'), ('9', '83'), ('57', '107')]
MinVal achieved:  5995.0
